vo\user1vo.class
vo\userdtlvo.class
dao\user1dao.class
vo\uservo.class
dao\userdao.class
dao\searchdao.class
controller\RegController.class
dao\userdtldao.class
controller\DeleteController.class
controller\SearchController.class
controller\UserController.class
