C:\Users\darshan\workspace\Hibernate\src\vo\uservo.java
C:\Users\darshan\workspace\Hibernate\src\controller\RegController.java
C:\Users\darshan\workspace\Hibernate\src\controller\SearchController.java
C:\Users\darshan\workspace\Hibernate\src\dao\userdtldao.java
C:\Users\darshan\workspace\Hibernate\src\vo\userdtlvo.java
C:\Users\darshan\workspace\Hibernate\src\controller\UserController.java
C:\Users\darshan\workspace\Hibernate\src\dao\searchdao.java
C:\Users\darshan\workspace\Hibernate\src\dao\user1dao.java
C:\Users\darshan\workspace\Hibernate\src\vo\user1vo.java
C:\Users\darshan\workspace\Hibernate\src\controller\DeleteController.java
C:\Users\darshan\workspace\Hibernate\src\dao\userdao.java
